lab7/simulation/qsim/lab7.msim.vcd
$comment
	File created using the following command:
		vcd file lab7.msim.vcd -direction
$end
$date
	Mon May 01 23:36:49 2017
$end
$version
	ModelSim Version 10.1d
$end
$timescale
	1ps
$end
$scope module Q6_vlg_vec_tst $end
$var reg 1 ! B $end
$var reg 1 " clk $end
$var wire 1 # Q6 $end
$var wire 1 $ sampler $end
$scope module i1 $end
$var wire 1 % gnd $end
$var wire 1 & vcc $end
$var wire 1 ' unknown $end
$var tri1 1 ( devclrn $end
$var tri1 1 ) devpor $end
$var tri1 1 * devoe $end
$var wire 1 + clk~combout $end
$var wire 1 , B~combout $end
$var wire 1 - temp~0_combout $end
$var wire 1 . temp~regout $end
$upscope $end
$upscope $end
$enddefinitions $end
#0
$dumpvars
1!
0"
0#
x$
0%
1&
x'
1(
1)
1*
0+
1,
1-
0.
$end
#25000
0!
0,
0$
0-
#30000
1!
1,
1$
1-
#45000
0!
0,
0$
0-
#50000
1!
1,
1$
1-
#70000
0!
0,
0$
0-
#130000
1!
1,
1$
1-
#160000
0!
0,
0$
0-
#165000
1"
1+
1$
#210000
1!
1,
0$
1-
#250000
0!
0,
1$
0-
#290000
1!
1,
0$
1-
#325000
0"
0+
1$
#330000
0!
0,
0$
0-
#370000
1!
1,
1$
1-
#410000
0!
0,
0$
0-
#450000
1!
1,
1$
1-
#485000
1"
1+
0$
1.
0-
1#
#490000
0!
0,
1$
1-
#530000
1!
1,
0$
0-
#570000
0!
0,
1$
1-
#610000
1!
1,
0$
0-
#645000
0"
0+
1$
#650000
0!
0,
0$
1-
#690000
1!
1,
1$
0-
#730000
0!
0,
0$
1-
#770000
1!
1,
1$
0-
#805000
1"
1+
0$
0.
1-
0#
#810000
0!
0,
1$
0-
#850000
1!
1,
0$
1-
#890000
0!
0,
1$
0-
#930000
1!
1,
0$
1-
#965000
0"
0+
1$
#970000
0!
0,
0$
0-
