lab9/simulation/qsim/lab9.msim.vcd
$comment
	File created using the following command:
		vcd file lab9.msim.vcd -direction
$end
$date
	Tue May 23 12:09:46 2017
$end
$version
	ModelSim Version 10.1d
$end
$timescale
	1ps
$end
$scope module Maquina1_vlg_vec_tst $end
$var reg 1 ! Clock $end
$var reg 1 " Reset $end
$var reg 1 # w $end
$var wire 1 $ z $end
$var wire 1 % sampler $end
$scope module i1 $end
$var wire 1 & gnd $end
$var wire 1 ' vcc $end
$var wire 1 ( unknown $end
$var tri1 1 ) devclrn $end
$var tri1 1 * devpor $end
$var tri1 1 + devoe $end
$var wire 1 , Clock~combout $end
$var wire 1 - Clock~clkctrl_outclk $end
$var wire 1 . w~combout $end
$var wire 1 / y~10_combout $end
$var wire 1 0 Reset~combout $end
$var wire 1 1 Reset~clkctrl_outclk $end
$var wire 1 2 y.A~regout $end
$var wire 1 3 y~11_combout $end
$var wire 1 4 y.C~regout $end
$var wire 1 5 Selector0~0_combout $end
$var wire 1 6 y.B~regout $end
$var wire 1 7 Selector1~1_combout $end
$var wire 1 8 y.D~regout $end
$var wire 1 9 Selector1~0_combout $end
$upscope $end
$upscope $end
$enddefinitions $end
#0
$dumpvars
0!
1"
0#
1$
x%
0&
1'
x(
1)
1*
1+
0,
0-
0.
1/
10
11
02
13
04
05
06
07
08
19
$end
#530034
1#
1.
0%
15
03
#1280000
0"
00
01
1%
#5000000
1!
1,
1-
0%
16
12
09
05
13
0$
#10000000
0!
0,
0-
1%
#15000000
1!
1,
1-
0%
06
14
#20000000
0!
0,
0-
1%
#25000000
1!
1,
1-
0%
#30000000
0!
0,
0-
1%
#35000000
1!
1,
1-
0%
#39399194
0#
0.
1%
15
03
#40000000
0!
0,
0-
0%
#45000000
1!
1,
1-
1%
16
04
19
17
05
1$
#50000000
0!
0,
0-
0%
#55000000
1!
1,
1-
1%
18
06
09
0/
07
0$
#60000000
0!
0,
0-
0%
#65000000
1!
1,
1-
1%
08
02
19
1/
13
1$
#70000000
0!
0,
0-
0%
#75000000
1!
1,
1-
1%
14
12
15
09
03
0$
#80000000
0!
0,
0-
0%
#85000000
1!
1,
1-
1%
16
04
19
17
05
1$
#90000000
0!
0,
0-
0%
#95000000
1!
1,
1-
1%
18
06
09
0/
07
0$
